#day	hour	Tout	Td	Tg	Tsky	Pa	g_vs_ab
80	1	-1	-5.80099	-20.7976	-5.59118	98.7123	0.010000
80	2	-1	-5.80099	-20.7976	-5.61093	98.7123	0.010000
80	3	-1	-6.37894	-20.7976	-5.68383	98.7123	0.010000
80	4	-1	-5.99112	-20.7976	-5.6971	98.7123	0.010000
80	5	-0.9	-5.89474	-20.7976	-5.63966	98.7132	0.010000
80	6	-0.7	-6.48996	-20.7976	-5.53713	98.7151	0.010000
80	7	-0.6	-6.39417	-20.7976	-5.48348	98.7161	0.300000
80	8	-0.6	-6.59811	-20.7976	-2.8937	98.7161	0.300000
80	9	0.1	-5.72363	-20.7976	-2.18961	98.7227	0.300000
80	10	1	-4.6582	-20.7976	-1.27533	98.7311	0.300000
80	11	1.1	-3.58414	-20.7976	-1.14754	98.732	0.300000
80	12	1.3	-2.65106	-20.7976	-0.918523	98.7339	0.300000
80	13	0.8	-0.808472	-20.7976	-1.34229	98.7292	0.300000
80	14	0.6	-0.701263	-20.7976	-1.52753	98.7274	0.300000
80	15	0.6	-0.402405	-20.7976	-1.5015	98.7274	0.300000
80	16	0.5	-0.650269	-20.7976	-1.59149	98.7264	0.300000
80	17	0.5	-0.800323	-20.7976	-1.57531	98.7264	0.300000
80	18	0.9	-0.404144	-20.7976	-1.13943	98.7302	0.300000
80	19	1	-0.610809	-20.7976	-1.02459	98.7311	0.300000
80	20	1.2	-1.37024	-20.7976	-0.833111	98.733	0.300000
80	21	1.6	-1.65292	-20.7976	-0.427821	98.7367	0.010000
80	22	1.5	-1.40945	-20.7976	-0.503395	98.7358	0.300000
80	23	1.7	-1.04572	-20.7976	-0.28187	98.7376	0.300000
80	24	1.9	-0.683319	-20.7976	-0.0662453	98.7395	0.300000
